{
  "data": [
    {
      "id": 26,
      "createdAt": "2024-08-27T12:14:09.039Z",
      "updatedAt": "2024-08-27T18:36:41.000Z",
      "category": "qna",
      "subCategory": null,
      "title": "날씨가 더워요",
      "body": "<div><span style=\"font-size: 1em;\">날씨 장난 아님&nbsp;</span><br></div><div><span style=\"font-size: 1em;\"><br></span></div><div><img style=\"height:302.8436018957346px;width:201.53846153846152px;margin-bottom:10px\" src=\"https://firebasestorage.googleapis.com/v0/b/cadanamoim.appspot.com/o/post%2FpMnfbSjPx%2F0post.png?alt=media&amp;token=7b47e9fe-f5ba-43a9-9023-23b4775e43e0\"><span style=\"font-size: 1em;\"><br></span></div>",
      "thumnailImageUrl": "https://firebasestorage.googleapis.com/v0/b/cadanamoim.appspot.com/o/post%2FpMnfbSjPx%2F0post.png?alt=media&amp;token=7b47e9fe-f5ba-43a9-9023-23b4775e43e0",
      "viewCount": 5,
      "commentsCount": 0,
      "parentPost": null,
      "childPosts": [],
      "user": null
    },
    {
      "id": 25,
      "createdAt": "2024-08-27T12:12:30.475Z",
      "updatedAt": "2024-08-27T12:12:30.475Z",
      "category": "job_listings",
      "subCategory": "job_seeker",
      "title": "사람찾아요",
      "body": "<div><img style=\"height:302.8436018957346px;width:201.53846153846152px;margin-bottom:10px\" src=\"https://firebasestorage.googleapis.com/v0/b/cadanamoim.appspot.com/o/post%2FKvl_PaCJN%2F0post.png?alt=media&amp;token=4500d9c9-4ac0-49b1-80ee-9cdb0012bae8\"></div><div>포토부스애서 일하실 뿐&nbsp;</div><div><ul><li>시급 $1</li><li>시간 아무때나&nbsp;</li></ul><div>111-111-11111로 연럭 주세요&nbsp;</div></div>",
      "thumnailImageUrl": "https://firebasestorage.googleapis.com/v0/b/cadanamoim.appspot.com/o/post%2FKvl_PaCJN%2F0post.png?alt=media&amp;token=4500d9c9-4ac0-49b1-80ee-9cdb0012bae8",
      "viewCount": 0,
      "commentsCount": 0,
      "parentPost": null,
      "childPosts": [],
      "user": null
    },
    {
      "id": 24,
      "createdAt": "2024-08-26T15:12:07.683Z",
      "updatedAt": "2024-08-26T16:22:19.000Z",
      "category": "business_meetings",
      "subCategory": "advertisement",
      "title": "신규 네일샵 오픈!",
      "body": "<div>두둥!</div>",
      "thumnailImageUrl": "",
      "viewCount": 2,
      "commentsCount": 2,
      "parentPost": null,
      "childPosts": [],
      "user": {
        "id": 43,
        "createdAt": "2024-08-26T14:47:19.623Z",
        "updatedAt": "2024-08-26T14:47:19.623Z",
        "uid": "GLgIP8QaMUOekJmByO2sGrhRKTm1",
        "email": "ayeun5853@gmail.com",
        "bizName": null,
        "name": "에이미",
        "profileImageUrl": "https://lh3.googleusercontent.com/a/ACg8ocJEYUZTpt7ygk2xMah09WDM1-DGJ7UrvwoTj3qYAl9BIHHApQ=s96-c",
        "phoneNo": "+16473365853",
        "provider": "google",
        "isBiz": false,
        "fcmToken": "",
        "deletedAt": null
      }
    },
    {
      "id": 23,
      "createdAt": "2024-08-26T15:01:07.031Z",
      "updatedAt": "2024-08-26T15:01:10.000Z",
      "category": "used_goods",
      "subCategory": "buy",
      "title": "CBM 단체티 구합니다",
      "body": "<div>너무 간지나서 그러는지 구매 원해요</div><div>1불에 삽니다</div>",
      "thumnailImageUrl": "",
      "viewCount": 1,
      "commentsCount": 0,
      "parentPost": null,
      "childPosts": [],
      "user": {
        "id": 43,
        "createdAt": "2024-08-26T14:47:19.623Z",
        "updatedAt": "2024-08-26T14:47:19.623Z",
        "uid": "GLgIP8QaMUOekJmByO2sGrhRKTm1",
        "email": "ayeun5853@gmail.com",
        "bizName": null,
        "name": "에이미",
        "profileImageUrl": "https://lh3.googleusercontent.com/a/ACg8ocJEYUZTpt7ygk2xMah09WDM1-DGJ7UrvwoTj3qYAl9BIHHApQ=s96-c",
        "phoneNo": "+16473365853",
        "provider": "google",
        "isBiz": false,
        "fcmToken": "",
        "deletedAt": null
      }
    },
    {
      "id": 22,
      "createdAt": "2024-08-26T14:58:10.436Z",
      "updatedAt": "2024-08-26T16:22:33.000Z",
      "category": "currency_exchange",
      "subCategory": "cad_to_won",
      "title": "어어엉",
      "body": "<div>채팅걸어보셈</div>",
      "thumnailImageUrl": "",
      "viewCount": 3,
      "commentsCount": 1,
      "parentPost": null,
      "childPosts": [],
      "user": {
        "id": 37,
        "createdAt": "2024-08-23T00:33:23.998Z",
        "updatedAt": "2024-08-26T18:01:36.000Z",
        "uid": "jvd23BXLBEg8RG4vnjWl3oSmt4z2",
        "email": "solmin@cbmpress.com",
        "bizName": null,
        "name": "솔",
        "profileImageUrl": "https://firebasestorage.googleapis.com/v0/b/cadanamoim.appspot.com/o/profile%2Fsolmin%40cbmpress.com%2Fprofile.png?alt=media&token=f2388e7e-8535-4517-99cf-a83691f56165",
        "phoneNo": "+12899230772",
        "provider": "google",
        "isBiz": false,
        "fcmToken": "",
        "deletedAt": null
      }
    },
    {
      "id": 21,
      "createdAt": "2024-08-26T14:57:13.642Z",
      "updatedAt": "2024-08-26T14:58:07.000Z",
      "category": "used_goods",
      "subCategory": "sell",
      "title": "무빙세일 맞교환 하실분?",
      "body": "<div>고추장 파시던분 저랑 된장 맞교환 가능하십니까?</div><div>된장은 한스푼 정도 남았습니다</div><div><img style=\"height:300px;width:199.99999999999997px;margin-bottom:10px\" src=\"https://firebasestorage.googleapis.com/v0/b/cadanamoim.appspot.com/o/post%2F7FYFac5Ap%2F0post.png?alt=media&amp;token=5b39d69f-d24f-45a4-a007-c1b7be76a4af\"><br></div>",
      "thumnailImageUrl": "https://firebasestorage.googleapis.com/v0/b/cadanamoim.appspot.com/o/post%2F7FYFac5Ap%2F0post.png?alt=media&amp;token=5b39d69f-d24f-45a4-a007-c1b7be76a4af",
      "viewCount": 1,
      "commentsCount": 0,
      "parentPost": null,
      "childPosts": [],
      "user": {
        "id": 43,
        "createdAt": "2024-08-26T14:47:19.623Z",
        "updatedAt": "2024-08-26T14:47:19.623Z",
        "uid": "GLgIP8QaMUOekJmByO2sGrhRKTm1",
        "email": "ayeun5853@gmail.com",
        "bizName": null,
        "name": "에이미",
        "profileImageUrl": "https://lh3.googleusercontent.com/a/ACg8ocJEYUZTpt7ygk2xMah09WDM1-DGJ7UrvwoTj3qYAl9BIHHApQ=s96-c",
        "phoneNo": "+16473365853",
        "provider": "google",
        "isBiz": false,
        "fcmToken": "",
        "deletedAt": null
      }
    },
    {
      "id": 20,
      "createdAt": "2024-08-26T14:54:06.066Z",
      "updatedAt": "2024-08-26T14:54:06.066Z",
      "category": "qna",
      "subCategory": null,
      "title": "캐나다 이민 이거 맞는거임?",
      "body": "<div>잘 모르겠던데</div><div><img style=\"height:300px;width:199.99999999999997px;margin-bottom:10px\" src=\"https://firebasestorage.googleapis.com/v0/b/cadanamoim.appspot.com/o/post%2Fd_JDuIaCj%2F0post.png?alt=media&amp;token=5f5c5a6b-6c8e-42fc-bdbe-1c2f34fc56a7\"><br></div>",
      "thumnailImageUrl": "https://firebasestorage.googleapis.com/v0/b/cadanamoim.appspot.com/o/post%2Fd_JDuIaCj%2F0post.png?alt=media&amp;token=5f5c5a6b-6c8e-42fc-bdbe-1c2f34fc56a7",
      "viewCount": 0,
      "commentsCount": 0,
      "parentPost": null,
      "childPosts": [],
      "user": {
        "id": 43,
        "createdAt": "2024-08-26T14:47:19.623Z",
        "updatedAt": "2024-08-26T14:47:19.623Z",
        "uid": "GLgIP8QaMUOekJmByO2sGrhRKTm1",
        "email": "ayeun5853@gmail.com",
        "bizName": null,
        "name": "에이미",
        "profileImageUrl": "https://lh3.googleusercontent.com/a/ACg8ocJEYUZTpt7ygk2xMah09WDM1-DGJ7UrvwoTj3qYAl9BIHHApQ=s96-c",
        "phoneNo": "+16473365853",
        "provider": "google",
        "isBiz": false,
        "fcmToken": "",
        "deletedAt": null
      }
    },
    {
      "id": 19,
      "createdAt": "2024-08-26T14:49:51.599Z",
      "updatedAt": "2024-08-28T05:17:46.000Z",
      "category": "chat",
      "subCategory": null,
      "title": "내밑으로 못생긴 애들 다 조용",
      "body": "<div><img style=\"height:300px;width:199.99999999999997px;margin-bottom:10px\" src=\"https://firebasestorage.googleapis.com/v0/b/cadanamoim.appspot.com/o/post%2FoSdlRgXtM%2F0post.png?alt=media&amp;token=decf3e16-f8cd-4188-87cd-4d1b6937a361\"></div>",
      "thumnailImageUrl": "https://firebasestorage.googleapis.com/v0/b/cadanamoim.appspot.com/o/post%2FoSdlRgXtM%2F0post.png?alt=media&amp;token=decf3e16-f8cd-4188-87cd-4d1b6937a361",
      "viewCount": 30,
      "commentsCount": 1,
      "parentPost": null,
      "childPosts": [],
      "user": {
        "id": 43,
        "createdAt": "2024-08-26T14:47:19.623Z",
        "updatedAt": "2024-08-26T14:47:19.623Z",
        "uid": "GLgIP8QaMUOekJmByO2sGrhRKTm1",
        "email": "ayeun5853@gmail.com",
        "bizName": null,
        "name": "에이미",
        "profileImageUrl": "https://lh3.googleusercontent.com/a/ACg8ocJEYUZTpt7ygk2xMah09WDM1-DGJ7UrvwoTj3qYAl9BIHHApQ=s96-c",
        "phoneNo": "+16473365853",
        "provider": "google",
        "isBiz": false,
        "fcmToken": "",
        "deletedAt": null
      }
    },
    {
      "id": 18,
      "createdAt": "2024-08-26T13:56:45.442Z",
      "updatedAt": "2024-08-26T13:56:48.000Z",
      "category": "used_goods",
      "subCategory": "sell",
      "title": "팝니다",
      "body": "<div><img style=\"height:300px;width:199.99999999999997px;margin-bottom:10px\" src=\"https://firebasestorage.googleapis.com/v0/b/cadanamoim.appspot.com/o/post%2FoPBqkwb2f%2F0post.png?alt=media&amp;token=12696641-3796-4bd7-a653-85d4875510c3\"></div>",
      "thumnailImageUrl": "https://firebasestorage.googleapis.com/v0/b/cadanamoim.appspot.com/o/post%2FoPBqkwb2f%2F0post.png?alt=media&amp;token=12696641-3796-4bd7-a653-85d4875510c3",
      "viewCount": 1,
      "commentsCount": 0,
      "parentPost": null,
      "childPosts": [],
      "user": {
        "id": 42,
        "createdAt": "2024-08-26T13:51:32.501Z",
        "updatedAt": "2024-08-26T13:51:32.501Z",
        "uid": "NESmQZeSweYIbvfRCOhYkQR8Gsd2",
        "email": "sujin@cbmpress.com",
        "bizName": null,
        "name": "이수진",
        "profileImageUrl": "https://lh3.googleusercontent.com/a/ACg8ocIKL_rm_9K1dbqBA9RAbqFZ9n3yA7P1thhWWLSLAjjQrMvfFxU=s96-c",
        "phoneNo": "+16476888730",
        "provider": "google",
        "isBiz": false,
        "fcmToken": "",
        "deletedAt": null
      }
    },
    {
      "id": 17,
      "createdAt": "2024-08-26T13:53:47.184Z",
      "updatedAt": "2024-08-26T14:48:31.000Z",
      "category": "used_goods",
      "subCategory": "sell",
      "title": "무빙세일",
      "body": "<div>고추장 팔아요~</div><div><img style=\"height:300px;width:199.99999999999997px;margin-bottom:10px\" src=\"https://firebasestorage.googleapis.com/v0/b/cadanamoim.appspot.com/o/post%2FAeMq9PeQF%2F0post.png?alt=media&amp;token=d9602811-2858-4b54-8dee-501cca51dc3b\"><br></div>",
      "thumnailImageUrl": "https://firebasestorage.googleapis.com/v0/b/cadanamoim.appspot.com/o/post%2FAeMq9PeQF%2F0post.png?alt=media&amp;token=d9602811-2858-4b54-8dee-501cca51dc3b",
      "viewCount": 4,
      "commentsCount": 1,
      "parentPost": null,
      "childPosts": [],
      "user": {
        "id": 42,
        "createdAt": "2024-08-26T13:51:32.501Z",
        "updatedAt": "2024-08-26T13:51:32.501Z",
        "uid": "NESmQZeSweYIbvfRCOhYkQR8Gsd2",
        "email": "sujin@cbmpress.com",
        "bizName": null,
        "name": "이수진",
        "profileImageUrl": "https://lh3.googleusercontent.com/a/ACg8ocIKL_rm_9K1dbqBA9RAbqFZ9n3yA7P1thhWWLSLAjjQrMvfFxU=s96-c",
        "phoneNo": "+16476888730",
        "provider": "google",
        "isBiz": false,
        "fcmToken": "",
        "deletedAt": null
      }
    },
    {
      "id": 16,
      "createdAt": "2024-08-26T13:51:21.119Z",
      "updatedAt": "2024-08-26T13:53:53.000Z",
      "category": "job_listings",
      "subCategory": "employer",
      "title": "Re:썸",
      "body": "<div><span style=\"font-weight: bold; text-decoration: underline;\">어오어온</span></div>",
      "thumnailImageUrl": "",
      "viewCount": 2,
      "commentsCount": 2,
      "parentPost": {
        "id": 9,
        "createdAt": "2024-08-17T09:01:50.025Z",
        "updatedAt": "2024-08-27T18:14:30.000Z",
        "category": "job_listings",
        "subCategory": "employer",
        "title": "썸",
        "body": "<div>네<img src=\"https://firebasestorage.googleapis.com/v0/b/cadanamoim.appspot.com/o/post%2FD60tftNwF%2F0post.png?alt=media&amp;token=1df8db84-af09-487d-9ccc-6a78a18c0e50\" style=\"font-size: 1em; height: 263.033px; width: 184.615px; margin-bottom: 10px;\"></div>",
        "thumnailImageUrl": "https://firebasestorage.googleapis.com/v0/b/cadanamoim.appspot.com/o/post%2FD60tftNwF%2F0post.png?alt=media&amp;token=1df8db84-af09-487d-9ccc-6a78a18c0e50\" style=\"font-size: 1em; height: 263.033px; width: 184.615px; margin-bottom: 10px;",
        "viewCount": 29,
        "commentsCount": 0
      },
      "childPosts": [],
      "user": {
        "id": 37,
        "createdAt": "2024-08-23T00:33:23.998Z",
        "updatedAt": "2024-08-26T18:01:36.000Z",
        "uid": "jvd23BXLBEg8RG4vnjWl3oSmt4z2",
        "email": "solmin@cbmpress.com",
        "bizName": null,
        "name": "솔",
        "profileImageUrl": "https://firebasestorage.googleapis.com/v0/b/cadanamoim.appspot.com/o/profile%2Fsolmin%40cbmpress.com%2Fprofile.png?alt=media&token=f2388e7e-8535-4517-99cf-a83691f56165",
        "phoneNo": "+12899230772",
        "provider": "google",
        "isBiz": false,
        "fcmToken": "",
        "deletedAt": null
      }
    },
    {
      "id": 15,
      "createdAt": "2024-08-23T00:35:01.942Z",
      "updatedAt": "2024-08-26T13:51:23.000Z",
      "category": "job_listings",
      "subCategory": "employer",
      "title": "Re:테스트",
      "body": "<div>ㅎㅇㅎㅇㅎㅇㅎ</div>",
      "thumnailImageUrl": "",
      "viewCount": 4,
      "commentsCount": 0,
      "parentPost": {
        "id": 2,
        "createdAt": "2024-08-17T06:02:50.265Z",
        "updatedAt": "2024-08-26T14:46:22.000Z",
        "category": "job_listings",
        "subCategory": "employer",
        "title": "테스트",
        "body": "테스ㄸ",
        "thumnailImageUrl": null,
        "viewCount": 18,
        "commentsCount": 0
      },
      "childPosts": [],
      "user": {
        "id": 37,
        "createdAt": "2024-08-23T00:33:23.998Z",
        "updatedAt": "2024-08-26T18:01:36.000Z",
        "uid": "jvd23BXLBEg8RG4vnjWl3oSmt4z2",
        "email": "solmin@cbmpress.com",
        "bizName": null,
        "name": "솔",
        "profileImageUrl": "https://firebasestorage.googleapis.com/v0/b/cadanamoim.appspot.com/o/profile%2Fsolmin%40cbmpress.com%2Fprofile.png?alt=media&token=f2388e7e-8535-4517-99cf-a83691f56165",
        "phoneNo": "+12899230772",
        "provider": "google",
        "isBiz": false,
        "fcmToken": "",
        "deletedAt": null
      }
    },
    {
      "id": 14,
      "createdAt": "2024-08-21T15:53:47.552Z",
      "updatedAt": "2024-08-26T15:07:51.000Z",
      "category": "qna",
      "subCategory": null,
      "title": "질문하면되나유?",
      "body": "<div><img style=\"height:300px;width:199.99999999999997px;margin-bottom:10px\" src=\"https://firebasestorage.googleapis.com/v0/b/cadanamoim.appspot.com/o/post%2F2h9sMjoqO%2F0post.png?alt=media&amp;token=2621a4a2-3f2e-4d00-b3be-22d5748e5553\"></div><div>여기 어딘지 아시는 분?</div>",
      "thumnailImageUrl": "https://firebasestorage.googleapis.com/v0/b/cadanamoim.appspot.com/o/post%2F2h9sMjoqO%2F0post.png?alt=media&amp;token=2621a4a2-3f2e-4d00-b3be-22d5748e5553",
      "viewCount": 13,
      "commentsCount": 0,
      "parentPost": null,
      "childPosts": [],
      "user": {
        "id": 35,
        "createdAt": "2024-08-19T17:30:07.808Z",
        "updatedAt": "2024-08-19T17:30:07.808Z",
        "uid": "yoNpcLI7DMOHOQYGdZgykpgW1IG2",
        "email": "toronto@cbmpress.com",
        "bizName": null,
        "name": "Toronto",
        "profileImageUrl": "https://lh3.googleusercontent.com/a/ACg8ocIYs_h7FRPZ0dr1vPd7bvPyabsa38zrDMl9Ukxd32yuxEAuTNg=s96-c",
        "phoneNo": "+12899230772",
        "provider": "google",
        "isBiz": false,
        "fcmToken": "",
        "deletedAt": null
      }
    },
    {
      "id": 13,
      "createdAt": "2024-08-21T15:52:19.555Z",
      "updatedAt": "2024-08-26T14:57:06.000Z",
      "category": "chat",
      "subCategory": null,
      "title": "속닥속닥 1회 모임 개최",
      "body": "<div><br></div><div>속닥속닥 하실분&nbsp;</div><div>1회 모임 개최합니다</div><div><img style=\"height:300px;width:199.99999999999997px;margin-bottom:10px\" src=\"https://firebasestorage.googleapis.com/v0/b/cadanamoim.appspot.com/o/post%2FV_2OGcJQf%2F0post.png?alt=media&amp;token=3a716876-4db9-4879-92c3-29e701b12dcf\"><br></div><div>장소 마크함&nbsp;</div><div>주인장 둥둥선생</div>",
      "thumnailImageUrl": "https://firebasestorage.googleapis.com/v0/b/cadanamoim.appspot.com/o/post%2FV_2OGcJQf%2F0post.png?alt=media&amp;token=3a716876-4db9-4879-92c3-29e701b12dcf",
      "viewCount": 9,
      "commentsCount": 1,
      "parentPost": null,
      "childPosts": [],
      "user": {
        "id": 35,
        "createdAt": "2024-08-19T17:30:07.808Z",
        "updatedAt": "2024-08-19T17:30:07.808Z",
        "uid": "yoNpcLI7DMOHOQYGdZgykpgW1IG2",
        "email": "toronto@cbmpress.com",
        "bizName": null,
        "name": "Toronto",
        "profileImageUrl": "https://lh3.googleusercontent.com/a/ACg8ocIYs_h7FRPZ0dr1vPd7bvPyabsa38zrDMl9Ukxd32yuxEAuTNg=s96-c",
        "phoneNo": "+12899230772",
        "provider": "google",
        "isBiz": false,
        "fcmToken": "",
        "deletedAt": null
      }
    },
    {
      "id": 12,
      "createdAt": "2024-08-21T15:50:04.262Z",
      "updatedAt": "2024-08-27T12:12:52.000Z",
      "category": "job_listings",
      "subCategory": "job_seeker",
      "title": "구직 ",
      "body": "<div>구직합니다&nbsp;</div><div>연락주세요🙏🏻</div>",
      "thumnailImageUrl": "",
      "viewCount": 2,
      "commentsCount": 0,
      "parentPost": null,
      "childPosts": [],
      "user": {
        "id": 35,
        "createdAt": "2024-08-19T17:30:07.808Z",
        "updatedAt": "2024-08-19T17:30:07.808Z",
        "uid": "yoNpcLI7DMOHOQYGdZgykpgW1IG2",
        "email": "toronto@cbmpress.com",
        "bizName": null,
        "name": "Toronto",
        "profileImageUrl": "https://lh3.googleusercontent.com/a/ACg8ocIYs_h7FRPZ0dr1vPd7bvPyabsa38zrDMl9Ukxd32yuxEAuTNg=s96-c",
        "phoneNo": "+12899230772",
        "provider": "google",
        "isBiz": false,
        "fcmToken": "",
        "deletedAt": null
      }
    },
    {
      "id": 11,
      "createdAt": "2024-08-19T17:31:19.957Z",
      "updatedAt": "2024-08-26T14:59:53.000Z",
      "category": "real_estate",
      "subCategory": "sale",
      "title": "영 스틸 콘도 매매합니다",
      "body": "<div><img style=\"height:277.25118483412325px;width:184.61538461538458px;margin-bottom:10px\" src=\"https://firebasestorage.googleapis.com/v0/b/cadanamoim.appspot.com/o/post%2F98_5VpaXM%2F0post.png?alt=media&amp;token=6975d4b6-d29d-4163-8cc3-b2dba199fc77\"></div><div><br></div><div>30000불</div>",
      "thumnailImageUrl": null,
      "viewCount": 17,
      "commentsCount": 3,
      "parentPost": null,
      "childPosts": [],
      "user": {
        "id": 35,
        "createdAt": "2024-08-19T17:30:07.808Z",
        "updatedAt": "2024-08-19T17:30:07.808Z",
        "uid": "yoNpcLI7DMOHOQYGdZgykpgW1IG2",
        "email": "toronto@cbmpress.com",
        "bizName": null,
        "name": "Toronto",
        "profileImageUrl": "https://lh3.googleusercontent.com/a/ACg8ocIYs_h7FRPZ0dr1vPd7bvPyabsa38zrDMl9Ukxd32yuxEAuTNg=s96-c",
        "phoneNo": "+12899230772",
        "provider": "google",
        "isBiz": false,
        "fcmToken": "",
        "deletedAt": null
      }
    },
    {
      "id": 10,
      "createdAt": "2024-08-17T09:05:39.182Z",
      "updatedAt": "2024-08-21T00:40:58.000Z",
      "category": "job_listings",
      "subCategory": "employer",
      "title": "Re:썸",
      "body": "<div><img style=\"height:263.0331753554502px;width:184.61538461538458px;margin-bottom:10px\" src=\"https://firebasestorage.googleapis.com/v0/b/cadanamoim.appspot.com/o/post%2FNSbK-8QgJ%2F0post.png?alt=media&amp;token=8a4a6111-067a-4da1-96d8-468e3609573a\"></div>",
      "thumnailImageUrl": "https://firebasestorage.googleapis.com/v0/b/cadanamoim.appspot.com/o/post%2FNSbK-8QgJ%2F0post.png?alt=media&amp;token=8a4a6111-067a-4da1-96d8-468e3609573a",
      "viewCount": 2,
      "commentsCount": 0,
      "parentPost": {
        "id": 9,
        "createdAt": "2024-08-17T09:01:50.025Z",
        "updatedAt": "2024-08-27T18:14:30.000Z",
        "category": "job_listings",
        "subCategory": "employer",
        "title": "썸",
        "body": "<div>네<img src=\"https://firebasestorage.googleapis.com/v0/b/cadanamoim.appspot.com/o/post%2FD60tftNwF%2F0post.png?alt=media&amp;token=1df8db84-af09-487d-9ccc-6a78a18c0e50\" style=\"font-size: 1em; height: 263.033px; width: 184.615px; margin-bottom: 10px;\"></div>",
        "thumnailImageUrl": "https://firebasestorage.googleapis.com/v0/b/cadanamoim.appspot.com/o/post%2FD60tftNwF%2F0post.png?alt=media&amp;token=1df8db84-af09-487d-9ccc-6a78a18c0e50\" style=\"font-size: 1em; height: 263.033px; width: 184.615px; margin-bottom: 10px;",
        "viewCount": 29,
        "commentsCount": 0
      },
      "childPosts": [],
      "user": {
        "id": 31,
        "createdAt": "2024-08-12T14:12:31.192Z",
        "updatedAt": "2024-08-22T12:00:52.000Z",
        "uid": "BCZleZdkUqhngGrxaAYfe0OS6v83",
        "email": "moon5381@naver.com",
        "bizName": null,
        "name": "테스터1",
        "profileImageUrl": "",
        "phoneNo": "+8201056351584",
        "provider": "email",
        "isBiz": false,
        "fcmToken": "fOlDyrrDTC-YcWUsNsxaqQ:APA91bEfoJ2btVxSKfbD3-Z-MU3oXUopkvFJMGTFj20E3mrG2NIQCRY2K2lS97fmrGQcvwOedWOenCbWGHudF8sJPdgvhtOCo3bLsEaZ968_oivyUFZSej6obq7HE22reJ_STuTgDn3s",
        "deletedAt": null
      }
    },
    {
      "id": 9,
      "createdAt": "2024-08-17T09:01:50.025Z",
      "updatedAt": "2024-08-27T18:14:30.000Z",
      "category": "job_listings",
      "subCategory": "employer",
      "title": "썸",
      "body": "<div>네<img src=\"https://firebasestorage.googleapis.com/v0/b/cadanamoim.appspot.com/o/post%2FD60tftNwF%2F0post.png?alt=media&amp;token=1df8db84-af09-487d-9ccc-6a78a18c0e50\" style=\"font-size: 1em; height: 263.033px; width: 184.615px; margin-bottom: 10px;\"></div>",
      "thumnailImageUrl": "https://firebasestorage.googleapis.com/v0/b/cadanamoim.appspot.com/o/post%2FD60tftNwF%2F0post.png?alt=media&amp;token=1df8db84-af09-487d-9ccc-6a78a18c0e50\" style=\"font-size: 1em; height: 263.033px; width: 184.615px; margin-bottom: 10px;",
      "viewCount": 29,
      "commentsCount": 0,
      "parentPost": null,
      "childPosts": [
        {
          "id": 10,
          "createdAt": "2024-08-17T09:05:39.182Z",
          "updatedAt": "2024-08-21T00:40:58.000Z",
          "category": "job_listings",
          "subCategory": "employer",
          "title": "Re:썸",
          "body": "<div><img style=\"height:263.0331753554502px;width:184.61538461538458px;margin-bottom:10px\" src=\"https://firebasestorage.googleapis.com/v0/b/cadanamoim.appspot.com/o/post%2FNSbK-8QgJ%2F0post.png?alt=media&amp;token=8a4a6111-067a-4da1-96d8-468e3609573a\"></div>",
          "thumnailImageUrl": "https://firebasestorage.googleapis.com/v0/b/cadanamoim.appspot.com/o/post%2FNSbK-8QgJ%2F0post.png?alt=media&amp;token=8a4a6111-067a-4da1-96d8-468e3609573a",
          "viewCount": 2,
          "commentsCount": 0,
          "user": {
            "id": 31,
            "createdAt": "2024-08-12T14:12:31.192Z",
            "updatedAt": "2024-08-22T12:00:52.000Z",
            "uid": "BCZleZdkUqhngGrxaAYfe0OS6v83",
            "email": "moon5381@naver.com",
            "bizName": null,
            "name": "테스터1",
            "profileImageUrl": "",
            "phoneNo": "+8201056351584",
            "provider": "email",
            "isBiz": false,
            "fcmToken": "fOlDyrrDTC-YcWUsNsxaqQ:APA91bEfoJ2btVxSKfbD3-Z-MU3oXUopkvFJMGTFj20E3mrG2NIQCRY2K2lS97fmrGQcvwOedWOenCbWGHudF8sJPdgvhtOCo3bLsEaZ968_oivyUFZSej6obq7HE22reJ_STuTgDn3s",
            "deletedAt": null
          }
        },
        {
          "id": 16,
          "createdAt": "2024-08-26T13:51:21.119Z",
          "updatedAt": "2024-08-26T13:53:53.000Z",
          "category": "job_listings",
          "subCategory": "employer",
          "title": "Re:썸",
          "body": "<div><span style=\"font-weight: bold; text-decoration: underline;\">어오어온</span></div>",
          "thumnailImageUrl": "",
          "viewCount": 2,
          "commentsCount": 0,
          "user": {
            "id": 37,
            "createdAt": "2024-08-23T00:33:23.998Z",
            "updatedAt": "2024-08-26T18:01:36.000Z",
            "uid": "jvd23BXLBEg8RG4vnjWl3oSmt4z2",
            "email": "solmin@cbmpress.com",
            "bizName": null,
            "name": "솔",
            "profileImageUrl": "https://firebasestorage.googleapis.com/v0/b/cadanamoim.appspot.com/o/profile%2Fsolmin%40cbmpress.com%2Fprofile.png?alt=media&token=f2388e7e-8535-4517-99cf-a83691f56165",
            "phoneNo": "+12899230772",
            "provider": "google",
            "isBiz": false,
            "fcmToken": "",
            "deletedAt": null
          }
        }
      ],
      "user": {
        "id": 31,
        "createdAt": "2024-08-12T14:12:31.192Z",
        "updatedAt": "2024-08-22T12:00:52.000Z",
        "uid": "BCZleZdkUqhngGrxaAYfe0OS6v83",
        "email": "moon5381@naver.com",
        "bizName": null,
        "name": "테스터1",
        "profileImageUrl": "",
        "phoneNo": "+8201056351584",
        "provider": "email",
        "isBiz": false,
        "fcmToken": "fOlDyrrDTC-YcWUsNsxaqQ:APA91bEfoJ2btVxSKfbD3-Z-MU3oXUopkvFJMGTFj20E3mrG2NIQCRY2K2lS97fmrGQcvwOedWOenCbWGHudF8sJPdgvhtOCo3bLsEaZ968_oivyUFZSej6obq7HE22reJ_STuTgDn3s",
        "deletedAt": null
      }
    },
    {
      "id": 8,
      "createdAt": "2024-08-17T08:52:12.791Z",
      "updatedAt": "2024-08-17T08:52:12.791Z",
      "category": "job_listings",
      "subCategory": "job_seeker",
      "title": "Re:그냥",
      "body": "테스",
      "thumnailImageUrl": "",
      "viewCount": 0,
      "commentsCount": 0,
      "parentPost": {
        "id": 6,
        "createdAt": "2024-08-17T08:51:36.137Z",
        "updatedAt": "2024-08-26T14:55:10.000Z",
        "category": "job_listings",
        "subCategory": "job_seeker",
        "title": "그냥",
        "body": "테",
        "thumnailImageUrl": null,
        "viewCount": 7,
        "commentsCount": 0
      },
      "childPosts": [],
      "user": {
        "id": 31,
        "createdAt": "2024-08-12T14:12:31.192Z",
        "updatedAt": "2024-08-22T12:00:52.000Z",
        "uid": "BCZleZdkUqhngGrxaAYfe0OS6v83",
        "email": "moon5381@naver.com",
        "bizName": null,
        "name": "테스터1",
        "profileImageUrl": "",
        "phoneNo": "+8201056351584",
        "provider": "email",
        "isBiz": false,
        "fcmToken": "fOlDyrrDTC-YcWUsNsxaqQ:APA91bEfoJ2btVxSKfbD3-Z-MU3oXUopkvFJMGTFj20E3mrG2NIQCRY2K2lS97fmrGQcvwOedWOenCbWGHudF8sJPdgvhtOCo3bLsEaZ968_oivyUFZSej6obq7HE22reJ_STuTgDn3s",
        "deletedAt": null
      }
    },
    {
      "id": 7,
      "createdAt": "2024-08-17T08:51:53.992Z",
      "updatedAt": "2024-08-17T08:51:53.992Z",
      "category": "job_listings",
      "subCategory": "job_seeker",
      "title": "냥테",
      "body": "스트",
      "thumnailImageUrl": null,
      "viewCount": 0,
      "commentsCount": 0,
      "parentPost": null,
      "childPosts": [],
      "user": {
        "id": 31,
        "createdAt": "2024-08-12T14:12:31.192Z",
        "updatedAt": "2024-08-22T12:00:52.000Z",
        "uid": "BCZleZdkUqhngGrxaAYfe0OS6v83",
        "email": "moon5381@naver.com",
        "bizName": null,
        "name": "테스터1",
        "profileImageUrl": "",
        "phoneNo": "+8201056351584",
        "provider": "email",
        "isBiz": false,
        "fcmToken": "fOlDyrrDTC-YcWUsNsxaqQ:APA91bEfoJ2btVxSKfbD3-Z-MU3oXUopkvFJMGTFj20E3mrG2NIQCRY2K2lS97fmrGQcvwOedWOenCbWGHudF8sJPdgvhtOCo3bLsEaZ968_oivyUFZSej6obq7HE22reJ_STuTgDn3s",
        "deletedAt": null
      }
    }
  ],
  "meta": {
    "itemsPerPage": 20,
    "totalItems": 26,
    "currentPage": 1,
    "totalPages": 2,
    "sortBy": [["createdAt", "DESC"]]
  },
  "links": {
    "current": "http://ec2-3-139-226-20.us-east-2.compute.amazonaws.com:8080/post?page=1&limit=20&sortBy=createdAt:DESC",
    "next": "http://ec2-3-139-226-20.us-east-2.compute.amazonaws.com:8080/post?page=2&limit=20&sortBy=createdAt:DESC",
    "last": "http://ec2-3-139-226-20.us-east-2.compute.amazonaws.com:8080/post?page=2&limit=20&sortBy=createdAt:DESC"
  }
}
